\relax 
\providecommand\hyper@newdestlabel[2]{}
\providecommand*{\memsetcounter}[2]{}
\catcode `"\active 
\catcode `-\active 
\providecommand\HyperFirstAtBeginDocument{\AtBeginDocument}
\HyperFirstAtBeginDocument{\ifx\hyper@anchor\@undefined
\global\let\oldcontentsline\contentsline
\gdef\contentsline#1#2#3#4{\oldcontentsline{#1}{#2}{#3}}
\global\let\oldnewlabel\newlabel
\gdef\newlabel#1#2{\newlabelxx{#1}#2}
\gdef\newlabelxx#1#2#3#4#5#6{\oldnewlabel{#1}{{#2}{#3}}}
\AtEndDocument{\ifx\hyper@anchor\@undefined
\let\contentsline\oldcontentsline
\let\newlabel\oldnewlabel
\fi}
\fi}
\global\let\hyper@last\relax 
\gdef\HyperFirstAtBeginDocument#1{#1}
\providecommand*\HyPL@Entry[1]{}
\abx@aux@refcontext{none/global//global/global}
\HyPL@Entry{0<</S/D>>}
\@writefile{toc}{\boolfalse {citerequest}\boolfalse {citetracker}\boolfalse {pagetracker}\boolfalse {backtracker}\relax }
\@writefile{lof}{\boolfalse {citerequest}\boolfalse {citetracker}\boolfalse {pagetracker}\boolfalse {backtracker}\relax }
\@writefile{lot}{\boolfalse {citerequest}\boolfalse {citetracker}\boolfalse {pagetracker}\boolfalse {backtracker}\relax }
\select@language {czech}
\@writefile{toc}{\defcounter {refsection}{0}\relax }\@writefile{toc}{\select@language {czech}}
\@writefile{lof}{\defcounter {refsection}{0}\relax }\@writefile{lof}{\select@language {czech}}
\@writefile{lot}{\defcounter {refsection}{0}\relax }\@writefile{lot}{\select@language {czech}}
\select@language {czech}
\@writefile{toc}{\defcounter {refsection}{0}\relax }\@writefile{toc}{\select@language {czech}}
\@writefile{lof}{\defcounter {refsection}{0}\relax }\@writefile{lof}{\select@language {czech}}
\@writefile{lot}{\defcounter {refsection}{0}\relax }\@writefile{lot}{\select@language {czech}}
\select@language {czech}
\@writefile{toc}{\defcounter {refsection}{0}\relax }\@writefile{toc}{\select@language {czech}}
\@writefile{lof}{\defcounter {refsection}{0}\relax }\@writefile{lof}{\select@language {czech}}
\@writefile{lot}{\defcounter {refsection}{0}\relax }\@writefile{lot}{\select@language {czech}}
\HyPL@Entry{2<</S/r>>}
\@writefile{toc}{\defcounter {refsection}{0}\relax }\@writefile{toc}{\contentsline {subsection}{Odkaz na tuto pr{\' a}ci}{vi}{section*.1}\protected@file@percent }
\@writefile{toc}{\defcounter {refsection}{0}\relax }\@writefile{toc}{\contentsline {chapter}{Seznam výpisů kódu}{xi}{section*.5}\protected@file@percent }
\HyPL@Entry{14<</S/D>>}
\@writefile{lof}{\defcounter {refsection}{0}\relax }\@writefile{lof}{\addvspace {10pt}}
\@writefile{lot}{\defcounter {refsection}{0}\relax }\@writefile{lot}{\addvspace {10pt}}
\@writefile{toc}{\defcounter {refsection}{0}\relax }\@writefile{toc}{\contentsline {chapter}{{\' U}vod}{1}{chapter*.6}\protected@file@percent }
\@writefile{toc}{\defcounter {refsection}{0}\relax }\@writefile{toc}{\contentsline {paragraph}{}{1}{section*.7}\protected@file@percent }
\@writefile{toc}{\defcounter {refsection}{0}\relax }\@writefile{toc}{\contentsline {paragraph}{}{1}{section*.8}\protected@file@percent }
\@writefile{toc}{\defcounter {refsection}{0}\relax }\@writefile{toc}{\contentsline {paragraph}{}{3}{section*.10}\protected@file@percent }
\@writefile{lof}{\defcounter {refsection}{0}\relax }\@writefile{lof}{\addvspace {10pt}}
\@writefile{lot}{\defcounter {refsection}{0}\relax }\@writefile{lot}{\addvspace {10pt}}
\@writefile{toc}{\defcounter {refsection}{0}\relax }\@writefile{toc}{\contentsline {chapter}{\chapternumberline {1}Seznámení se s projektem}{5}{chapter.1}\protected@file@percent }
\@writefile{toc}{\defcounter {refsection}{0}\relax }\@writefile{toc}{\contentsline {paragraph}{}{5}{section*.11}\protected@file@percent }
\@writefile{toc}{\defcounter {refsection}{0}\relax }\@writefile{toc}{\contentsline {paragraph}{}{5}{section*.12}\protected@file@percent }
\abx@aux@cite{pro-git}
\abx@aux@segm{0}{0}{pro-git}
\@writefile{lof}{\defcounter {refsection}{0}\relax }\@writefile{lof}{\addvspace {10pt}}
\@writefile{lot}{\defcounter {refsection}{0}\relax }\@writefile{lot}{\addvspace {10pt}}
\@writefile{toc}{\defcounter {refsection}{0}\relax }\@writefile{toc}{\contentsline {chapter}{\chapternumberline {2}Základní zabezpečení webových projektů}{7}{chapter.2}\protected@file@percent }
\newlabel{zabezpeceni-projektu}{{\M@TitleReference {2}{Základní zabezpečení webových projektů}}{7}{Základní zabezpečení webových projektů}{chapter.2}{}}
\@writefile{toc}{\defcounter {refsection}{0}\relax }\@writefile{toc}{\contentsline {section}{\numberline {2.1}Verzování}{7}{section.2.1}\protected@file@percent }
\@writefile{toc}{\defcounter {refsection}{0}\relax }\@writefile{toc}{\contentsline {paragraph}{}{7}{section*.13}\protected@file@percent }
\abx@aux@cite{wedos-subdomena}
\abx@aux@segm{0}{0}{wedos-subdomena}
\abx@aux@cite{wordpress-changeurl}
\abx@aux@segm{0}{0}{wordpress-changeurl}
\@writefile{toc}{\defcounter {refsection}{0}\relax }\@writefile{toc}{\contentsline {paragraph}{}{8}{section*.14}\protected@file@percent }
\@writefile{toc}{\defcounter {refsection}{0}\relax }\@writefile{toc}{\contentsline {section}{\numberline {2.2}Vytvoření testovací verze}{8}{section.2.2}\protected@file@percent }
\@writefile{toc}{\defcounter {refsection}{0}\relax }\@writefile{toc}{\contentsline {paragraph}{}{8}{section*.15}\protected@file@percent }
\@writefile{toc}{\defcounter {refsection}{0}\relax }\@writefile{toc}{\contentsline {paragraph}{}{8}{section*.16}\protected@file@percent }
\abx@aux@cite{cert-verify}
\abx@aux@segm{0}{0}{cert-verify}
\@writefile{toc}{\defcounter {refsection}{0}\relax }\@writefile{toc}{\contentsline {section}{\numberline {2.3}Zabezpečení domény a spojení}{9}{section.2.3}\protected@file@percent }
\@writefile{toc}{\defcounter {refsection}{0}\relax }\@writefile{toc}{\contentsline {subsection}{\numberline {2.3.1}HTTPS}{9}{subsection.2.3.1}\protected@file@percent }
\@writefile{toc}{\defcounter {refsection}{0}\relax }\@writefile{toc}{\contentsline {paragraph}{}{9}{section*.17}\protected@file@percent }
\newlabel{certificate_show}{{\M@TitleReference {2.1}{}}{10}{MAF certifikát}{lstlisting.2.1}{}}
\@writefile{lol}{\defcounter {refsection}{0}\relax }\@writefile{lol}{\contentsline {lstlisting}{\numberline {2.1}MAF certifikát}{10}{lstlisting.2.1}\protected@file@percent }
\@writefile{toc}{\defcounter {refsection}{0}\relax }\@writefile{toc}{\contentsline {subsection}{\numberline {2.3.2}Implementace HTTPS}{10}{subsection.2.3.2}\protected@file@percent }
\abx@aux@cite{compare-certificate}
\abx@aux@segm{0}{0}{compare-certificate}
\abx@aux@cite{lets-encrypt}
\abx@aux@segm{0}{0}{lets-encrypt}
\@writefile{toc}{\defcounter {refsection}{0}\relax }\@writefile{toc}{\contentsline {paragraph}{}{11}{section*.18}\protected@file@percent }
\@writefile{toc}{\defcounter {refsection}{0}\relax }\@writefile{toc}{\contentsline {paragraph}{}{11}{section*.19}\protected@file@percent }
\@writefile{toc}{\defcounter {refsection}{0}\relax }\@writefile{toc}{\contentsline {paragraph}{}{11}{section*.20}\protected@file@percent }
\@writefile{toc}{\defcounter {refsection}{0}\relax }\@writefile{toc}{\contentsline {paragraph}{}{11}{section*.21}\protected@file@percent }
\@writefile{toc}{\defcounter {refsection}{0}\relax }\@writefile{toc}{\contentsline {subsection}{\numberline {2.3.3}Vynucení HTTPS}{11}{subsection.2.3.3}\protected@file@percent }
\@writefile{toc}{\defcounter {refsection}{0}\relax }\@writefile{toc}{\contentsline {paragraph}{}{11}{section*.22}\protected@file@percent }
\@writefile{toc}{\defcounter {refsection}{0}\relax }\@writefile{toc}{\contentsline {paragraph}{}{12}{section*.23}\protected@file@percent }
\newlabel{htaccess_redirect}{{\M@TitleReference {2.2}{}}{12}{Přesměrování pomocí htaccess}{lstlisting.2.2}{}}
\@writefile{lol}{\defcounter {refsection}{0}\relax }\@writefile{lol}{\contentsline {lstlisting}{\numberline {2.2}Přesměrování pomocí htaccess}{12}{lstlisting.2.2}\protected@file@percent }
\@writefile{toc}{\defcounter {refsection}{0}\relax }\@writefile{toc}{\contentsline {paragraph}{}{12}{section*.24}\protected@file@percent }
\@writefile{toc}{\defcounter {refsection}{0}\relax }\@writefile{toc}{\contentsline {paragraph}{}{13}{section*.25}\protected@file@percent }
\@writefile{lof}{\defcounter {refsection}{0}\relax }\@writefile{lof}{\addvspace {10pt}}
\@writefile{lot}{\defcounter {refsection}{0}\relax }\@writefile{lot}{\addvspace {10pt}}
\@writefile{toc}{\defcounter {refsection}{0}\relax }\@writefile{toc}{\contentsline {chapter}{\chapternumberline {3}Zabezpečení vstupů}{15}{chapter.3}\protected@file@percent }
\newlabel{zabezpeceniVstupu}{{\M@TitleReference {3}{Zabezpečení vstupů}}{15}{Zabezpečení vstupů}{chapter.3}{}}
\@writefile{toc}{\defcounter {refsection}{0}\relax }\@writefile{toc}{\contentsline {paragraph}{}{15}{section*.26}\protected@file@percent }
\@writefile{toc}{\defcounter {refsection}{0}\relax }\@writefile{toc}{\contentsline {section}{\numberline {3.1}Validace vstupních dat}{15}{section.3.1}\protected@file@percent }
\@writefile{toc}{\defcounter {refsection}{0}\relax }\@writefile{toc}{\contentsline {subsection}{\numberline {3.1.1}Riziko nevalidace dat}{15}{subsection.3.1.1}\protected@file@percent }
\@writefile{toc}{\defcounter {refsection}{0}\relax }\@writefile{toc}{\contentsline {paragraph}{}{15}{section*.27}\protected@file@percent }
\@writefile{toc}{\defcounter {refsection}{0}\relax }\@writefile{toc}{\contentsline {subsection}{\numberline {3.1.2}Validace dat}{16}{subsection.3.1.2}\protected@file@percent }
\@writefile{toc}{\defcounter {refsection}{0}\relax }\@writefile{toc}{\contentsline {paragraph}{}{16}{section*.28}\protected@file@percent }
\@writefile{toc}{\defcounter {refsection}{0}\relax }\@writefile{toc}{\contentsline {paragraph}{}{16}{section*.29}\protected@file@percent }
\abx@aux@cite{owasp-xss-types}
\abx@aux@segm{0}{0}{owasp-xss-types}
\@writefile{toc}{\defcounter {refsection}{0}\relax }\@writefile{toc}{\contentsline {paragraph}{}{17}{section*.30}\protected@file@percent }
\@writefile{toc}{\defcounter {refsection}{0}\relax }\@writefile{toc}{\contentsline {section}{\numberline {3.2}Cross-site scripting (XSS)}{17}{section.3.2}\protected@file@percent }
\newlabel{XSS}{{\M@TitleReference {3.2}{Cross-site scripting (XSS)}}{17}{Cross-site scripting (XSS)}{section.3.2}{}}
\@writefile{toc}{\defcounter {refsection}{0}\relax }\@writefile{toc}{\contentsline {subsection}{\numberline {3.2.1}Lokální / XSS Type 0}{17}{subsection.3.2.1}\protected@file@percent }
\@writefile{toc}{\defcounter {refsection}{0}\relax }\@writefile{toc}{\contentsline {paragraph}{}{17}{section*.31}\protected@file@percent }
\@writefile{lol}{\defcounter {refsection}{0}\relax }\@writefile{lol}{\contentsline {lstlisting}{\numberline {3.1}Ukázka stránky zranitelné na lokální XSS}{17}{lstlisting.3.1}\protected@file@percent }
\@writefile{toc}{\defcounter {refsection}{0}\relax }\@writefile{toc}{\contentsline {subsubsection}{\numberline {3.2.1.1}Důsledky lokálního XSS}{18}{subsubsection.3.2.1.1}\protected@file@percent }
\@writefile{toc}{\defcounter {refsection}{0}\relax }\@writefile{toc}{\contentsline {paragraph}{}{18}{section*.32}\protected@file@percent }
\@writefile{toc}{\defcounter {refsection}{0}\relax }\@writefile{toc}{\contentsline {subsubsection}{\numberline {3.2.1.2}Protiopatření proti lokálnímu XSS}{18}{subsubsection.3.2.1.2}\protected@file@percent }
\@writefile{toc}{\defcounter {refsection}{0}\relax }\@writefile{toc}{\contentsline {paragraph}{}{18}{section*.33}\protected@file@percent }
\@writefile{toc}{\defcounter {refsection}{0}\relax }\@writefile{toc}{\contentsline {subsection}{\numberline {3.2.2}Stálý / XSS Type 1}{19}{subsection.3.2.2}\protected@file@percent }
\@writefile{lol}{\defcounter {refsection}{0}\relax }\@writefile{lol}{\contentsline {lstlisting}{\numberline {3.2}Ukázka stránky zranitelné na stálý XSS}{19}{lstlisting.3.2}\protected@file@percent }
\@writefile{toc}{\defcounter {refsection}{0}\relax }\@writefile{toc}{\contentsline {subsubsection}{\numberline {3.2.2.1}Ochrana proti stálému XSS}{20}{subsubsection.3.2.2.1}\protected@file@percent }
\@writefile{lol}{\defcounter {refsection}{0}\relax }\@writefile{lol}{\contentsline {lstlisting}{\numberline {3.3}Náhrada speciálních znaků na HTML entity}{20}{lstlisting.3.3}\protected@file@percent }
\@writefile{toc}{\defcounter {refsection}{0}\relax }\@writefile{toc}{\contentsline {paragraph}{}{20}{section*.34}\protected@file@percent }
\@writefile{toc}{\defcounter {refsection}{0}\relax }\@writefile{toc}{\contentsline {subsection}{\numberline {3.2.3}Zrcadlený / XSS Type 2}{21}{subsection.3.2.3}\protected@file@percent }
\@writefile{toc}{\defcounter {refsection}{0}\relax }\@writefile{toc}{\contentsline {subsubsection}{\numberline {3.2.3.1}Ochrana proti zrcadlenému XSS}{21}{subsubsection.3.2.3.1}\protected@file@percent }
\@writefile{toc}{\defcounter {refsection}{0}\relax }\@writefile{toc}{\contentsline {section}{\numberline {3.3}HTTP response splitting}{21}{section.3.3}\protected@file@percent }
\@writefile{lol}{\defcounter {refsection}{0}\relax }\@writefile{lol}{\contentsline {lstlisting}{\numberline {3.4}Příklad HTTP hlavičky}{22}{lstlisting.3.4}\protected@file@percent }
\@writefile{toc}{\defcounter {refsection}{0}\relax }\@writefile{toc}{\contentsline {paragraph}{}{22}{section*.35}\protected@file@percent }
\@writefile{toc}{\defcounter {refsection}{0}\relax }\@writefile{toc}{\contentsline {section}{\numberline {3.4}Session hijacking}{22}{section.3.4}\protected@file@percent }
\newlabel{hijacking}{{\M@TitleReference {3.4}{Session hijacking}}{22}{Session hijacking}{section.3.4}{}}
\@writefile{toc}{\defcounter {refsection}{0}\relax }\@writefile{toc}{\contentsline {paragraph}{}{22}{section*.36}\protected@file@percent }
\abx@aux@cite{owasp-hijacking}
\abx@aux@segm{0}{0}{owasp-hijacking}
\abx@aux@segm{0}{0}{owasp-hijacking}
\@writefile{toc}{\defcounter {refsection}{0}\relax }\@writefile{toc}{\contentsline {paragraph}{}{23}{section*.37}\protected@file@percent }
\@writefile{toc}{\defcounter {refsection}{0}\relax }\@writefile{toc}{\contentsline {paragraph}{}{23}{section*.38}\protected@file@percent }
\@writefile{toc}{\defcounter {refsection}{0}\relax }\@writefile{toc}{\contentsline {subsection}{\numberline {3.4.1}Fyzické zkopírování SID}{23}{subsection.3.4.1}\protected@file@percent }
\@writefile{toc}{\defcounter {refsection}{0}\relax }\@writefile{toc}{\contentsline {paragraph}{}{23}{section*.39}\protected@file@percent }
\@writefile{toc}{\defcounter {refsection}{0}\relax }\@writefile{toc}{\contentsline {subsection}{\numberline {3.4.2}Session sidejacking/sniffing}{23}{subsection.3.4.2}\protected@file@percent }
\abx@aux@cite{w3-set-cookie}
\abx@aux@segm{0}{0}{w3-set-cookie}
\@writefile{toc}{\defcounter {refsection}{0}\relax }\@writefile{toc}{\contentsline {paragraph}{}{24}{section*.40}\protected@file@percent }
\@writefile{toc}{\defcounter {refsection}{0}\relax }\@writefile{toc}{\contentsline {subsection}{\numberline {3.4.3}Session fixation attack}{24}{subsection.3.4.3}\protected@file@percent }
\@writefile{toc}{\defcounter {refsection}{0}\relax }\@writefile{toc}{\contentsline {paragraph}{}{24}{section*.41}\protected@file@percent }
\@writefile{toc}{\defcounter {refsection}{0}\relax }\@writefile{toc}{\contentsline {paragraph}{}{24}{section*.42}\protected@file@percent }
\@writefile{toc}{\defcounter {refsection}{0}\relax }\@writefile{toc}{\contentsline {paragraph}{}{24}{section*.43}\protected@file@percent }
\abx@aux@cite{set-cookie-chrome}
\abx@aux@segm{0}{0}{set-cookie-chrome}
\@writefile{toc}{\defcounter {refsection}{0}\relax }\@writefile{toc}{\contentsline {subsection}{\numberline {3.4.4}Cross-site scripting}{25}{subsection.3.4.4}\protected@file@percent }
\@writefile{toc}{\defcounter {refsection}{0}\relax }\@writefile{toc}{\contentsline {paragraph}{}{25}{section*.44}\protected@file@percent }
\@writefile{toc}{\defcounter {refsection}{0}\relax }\@writefile{toc}{\contentsline {paragraph}{}{25}{section*.45}\protected@file@percent }
\@writefile{toc}{\defcounter {refsection}{0}\relax }\@writefile{toc}{\contentsline {section}{\numberline {3.5}SQL injection}{26}{section.3.5}\protected@file@percent }
\abx@aux@cite{wordfence-prefix}
\abx@aux@segm{0}{0}{wordfence-prefix}
\@writefile{toc}{\defcounter {refsection}{0}\relax }\@writefile{toc}{\contentsline {paragraph}{}{27}{section*.46}\protected@file@percent }
\@writefile{toc}{\defcounter {refsection}{0}\relax }\@writefile{toc}{\contentsline {subsection}{\numberline {3.5.1}Ochrana před SQL injection}{27}{subsection.3.5.1}\protected@file@percent }
\@writefile{lol}{\defcounter {refsection}{0}\relax }\@writefile{lol}{\contentsline {lstlisting}{\numberline {3.5}Použití \$wpdb}{28}{lstlisting.3.5}\protected@file@percent }
\@writefile{toc}{\defcounter {refsection}{0}\relax }\@writefile{toc}{\contentsline {paragraph}{}{28}{section*.47}\protected@file@percent }
\@writefile{lof}{\defcounter {refsection}{0}\relax }\@writefile{lof}{\addvspace {10pt}}
\@writefile{lot}{\defcounter {refsection}{0}\relax }\@writefile{lot}{\addvspace {10pt}}
\@writefile{toc}{\defcounter {refsection}{0}\relax }\@writefile{toc}{\contentsline {chapter}{\chapternumberline {4}Bezpečnost systému WordPress}{29}{chapter.4}\protected@file@percent }
\newlabel{bezpecnost-wp}{{\M@TitleReference {4}{Bezpečnost systému WordPress}}{29}{Bezpečnost systému WordPress}{chapter.4}{}}
\@writefile{toc}{\defcounter {refsection}{0}\relax }\@writefile{toc}{\contentsline {section}{\numberline {4.1}Role-based access control}{29}{section.4.1}\protected@file@percent }
\@writefile{toc}{\defcounter {refsection}{0}\relax }\@writefile{toc}{\contentsline {paragraph}{}{29}{section*.48}\protected@file@percent }
\@writefile{lol}{\defcounter {refsection}{0}\relax }\@writefile{lol}{\contentsline {lstlisting}{\numberline {4.1}Přiřazení názvu oprávnění k jednotlivým akcím článku}{30}{lstlisting.4.1}\protected@file@percent }
\@writefile{lol}{\defcounter {refsection}{0}\relax }\@writefile{lol}{\contentsline {lstlisting}{\numberline {4.2}Odebrání role}{31}{lstlisting.4.2}\protected@file@percent }
\@writefile{lol}{\defcounter {refsection}{0}\relax }\@writefile{lol}{\contentsline {lstlisting}{\numberline {4.3}Přidání role}{31}{lstlisting.4.3}\protected@file@percent }
\@writefile{lol}{\defcounter {refsection}{0}\relax }\@writefile{lol}{\contentsline {lstlisting}{\numberline {4.4}Přiřazení oprávnění}{31}{lstlisting.4.4}\protected@file@percent }
\@writefile{toc}{\defcounter {refsection}{0}\relax }\@writefile{toc}{\contentsline {section}{\numberline {4.2}Instalace WP}{31}{section.4.2}\protected@file@percent }
\@writefile{toc}{\defcounter {refsection}{0}\relax }\@writefile{toc}{\contentsline {subsection}{\numberline {4.2.1}Změna výchozích hodnot}{32}{subsection.4.2.1}\protected@file@percent }
\@writefile{toc}{\defcounter {refsection}{0}\relax }\@writefile{toc}{\contentsline {paragraph}{}{32}{section*.49}\protected@file@percent }
\@writefile{toc}{\defcounter {refsection}{0}\relax }\@writefile{toc}{\contentsline {paragraph}{}{32}{section*.50}\protected@file@percent }
\@writefile{toc}{\defcounter {refsection}{0}\relax }\@writefile{toc}{\contentsline {paragraph}{}{32}{section*.51}\protected@file@percent }
\@writefile{toc}{\defcounter {refsection}{0}\relax }\@writefile{toc}{\contentsline {subsection}{\numberline {4.2.2}Skrytí dodatečných informací}{32}{subsection.4.2.2}\protected@file@percent }
\abx@aux@cite{wedos-seznam-souboru}
\abx@aux@segm{0}{0}{wedos-seznam-souboru}
\@writefile{lol}{\defcounter {refsection}{0}\relax }\@writefile{lol}{\contentsline {lstlisting}{\numberline {4.5}Odebrání generator tagu}{33}{lstlisting.4.5}\protected@file@percent }
\@writefile{toc}{\defcounter {refsection}{0}\relax }\@writefile{toc}{\contentsline {paragraph}{}{33}{section*.52}\protected@file@percent }
\@writefile{toc}{\defcounter {refsection}{0}\relax }\@writefile{toc}{\contentsline {subsection}{\numberline {4.2.3}Deaktivace nebezpečných funkcí}{33}{subsection.4.2.3}\protected@file@percent }
\@writefile{toc}{\defcounter {refsection}{0}\relax }\@writefile{toc}{\contentsline {paragraph}{}{33}{section*.53}\protected@file@percent }
\abx@aux@cite{stackoverflow-file-permision}
\abx@aux@segm{0}{0}{stackoverflow-file-permision}
\@writefile{toc}{\defcounter {refsection}{0}\relax }\@writefile{toc}{\contentsline {paragraph}{}{34}{section*.54}\protected@file@percent }
\@writefile{toc}{\defcounter {refsection}{0}\relax }\@writefile{toc}{\contentsline {subsection}{\numberline {4.2.4}Přístupová práva k souborům}{34}{subsection.4.2.4}\protected@file@percent }
\abx@aux@cite{wordfence}
\abx@aux@segm{0}{0}{wordfence}
\@writefile{toc}{\defcounter {refsection}{0}\relax }\@writefile{toc}{\contentsline {section}{\numberline {4.3}Zabezpečení WordPress}{35}{section.4.3}\protected@file@percent }
\@writefile{toc}{\defcounter {refsection}{0}\relax }\@writefile{toc}{\contentsline {subsection}{\numberline {4.3.1}Wordfence Security -- Firewall \& Malware Scan}{35}{subsection.4.3.1}\protected@file@percent }
\@writefile{toc}{\defcounter {refsection}{0}\relax }\@writefile{toc}{\contentsline {subsubsection}{\numberline {4.3.1.1}Blokování malicious traffic}{35}{subsubsection.4.3.1.1}\protected@file@percent }
\@writefile{toc}{\defcounter {refsection}{0}\relax }\@writefile{toc}{\contentsline {paragraph}{}{36}{section*.55}\protected@file@percent }
\@writefile{toc}{\defcounter {refsection}{0}\relax }\@writefile{toc}{\contentsline {subsubsection}{\numberline {4.3.1.2}Malware skener pro požadavky na server}{36}{subsubsection.4.3.1.2}\protected@file@percent }
\@writefile{toc}{\defcounter {refsection}{0}\relax }\@writefile{toc}{\contentsline {subsubsection}{\numberline {4.3.1.3}Ochrana proti brute force útoku}{36}{subsubsection.4.3.1.3}\protected@file@percent }
\@writefile{toc}{\defcounter {refsection}{0}\relax }\@writefile{toc}{\contentsline {paragraph}{}{36}{section*.56}\protected@file@percent }
\@writefile{toc}{\defcounter {refsection}{0}\relax }\@writefile{toc}{\contentsline {subsubsection}{\numberline {4.3.1.4}Kontrola zdrojových kódu WP, šablony a pluginů}{36}{subsubsection.4.3.1.4}\protected@file@percent }
\@writefile{toc}{\defcounter {refsection}{0}\relax }\@writefile{toc}{\contentsline {subsubsection}{\numberline {4.3.1.5}Kontrola ostatních souborů kvůli virům, podezřelým kódům a odkazování/přesměrování}{37}{subsubsection.4.3.1.5}\protected@file@percent }
\@writefile{toc}{\defcounter {refsection}{0}\relax }\@writefile{toc}{\contentsline {subsubsection}{\numberline {4.3.1.6}Skenování příspěvků a komentářů}{37}{subsubsection.4.3.1.6}\protected@file@percent }
\@writefile{toc}{\defcounter {refsection}{0}\relax }\@writefile{toc}{\contentsline {subsubsection}{\numberline {4.3.1.7}Kontrola nastavení WP, šablon a pluginů}{37}{subsubsection.4.3.1.7}\protected@file@percent }
\@writefile{toc}{\defcounter {refsection}{0}\relax }\@writefile{toc}{\contentsline {subsubsection}{\numberline {4.3.1.8}Ověření aktuálních verzí}{37}{subsubsection.4.3.1.8}\protected@file@percent }
\@writefile{toc}{\defcounter {refsection}{0}\relax }\@writefile{toc}{\contentsline {subsubsection}{\numberline {4.3.1.9}Další kontroly}{38}{subsubsection.4.3.1.9}\protected@file@percent }
\@writefile{toc}{\defcounter {refsection}{0}\relax }\@writefile{toc}{\contentsline {paragraph}{}{38}{section*.57}\protected@file@percent }
\@writefile{toc}{\defcounter {refsection}{0}\relax }\@writefile{toc}{\contentsline {subsection}{\numberline {4.3.2}Salt Shaker}{38}{subsection.4.3.2}\protected@file@percent }
\@writefile{toc}{\defcounter {refsection}{0}\relax }\@writefile{toc}{\contentsline {paragraph}{}{38}{section*.58}\protected@file@percent }
\@writefile{toc}{\defcounter {refsection}{0}\relax }\@writefile{toc}{\contentsline {subsection}{\numberline {4.3.3}Záloha}{38}{subsection.4.3.3}\protected@file@percent }
\@writefile{toc}{\defcounter {refsection}{0}\relax }\@writefile{toc}{\contentsline {paragraph}{}{38}{section*.59}\protected@file@percent }
\abx@aux@cite{UpdraftPlus}
\abx@aux@segm{0}{0}{UpdraftPlus}
\abx@aux@cite{Jetpack}
\abx@aux@segm{0}{0}{Jetpack}
\@writefile{toc}{\defcounter {refsection}{0}\relax }\@writefile{toc}{\contentsline {paragraph}{}{39}{section*.60}\protected@file@percent }
\@writefile{toc}{\defcounter {refsection}{0}\relax }\@writefile{toc}{\contentsline {subsubsection}{\numberline {4.3.3.1}UpdraftPlus WordPress Backup Plugin}{39}{subsubsection.4.3.3.1}\protected@file@percent }
\@writefile{toc}{\defcounter {refsection}{0}\relax }\@writefile{toc}{\contentsline {paragraph}{}{39}{section*.61}\protected@file@percent }
\@writefile{toc}{\defcounter {refsection}{0}\relax }\@writefile{toc}{\contentsline {subsubsection}{\numberline {4.3.3.2}Jetpack od WordPress.com}{39}{subsubsection.4.3.3.2}\protected@file@percent }
\abx@aux@cite{BackupBuddy}
\abx@aux@segm{0}{0}{BackupBuddy}
\@writefile{toc}{\defcounter {refsection}{0}\relax }\@writefile{toc}{\contentsline {subsubsection}{\numberline {4.3.3.3}BackupBuddy}{40}{subsubsection.4.3.3.3}\protected@file@percent }
\@writefile{lof}{\defcounter {refsection}{0}\relax }\@writefile{lof}{\addvspace {10pt}}
\@writefile{lot}{\defcounter {refsection}{0}\relax }\@writefile{lot}{\addvspace {10pt}}
\@writefile{toc}{\defcounter {refsection}{0}\relax }\@writefile{toc}{\contentsline {chapter}{\chapternumberline {5}Implementace zabezpečení}{41}{chapter.5}\protected@file@percent }
\@writefile{toc}{\defcounter {refsection}{0}\relax }\@writefile{toc}{\contentsline {paragraph}{}{41}{section*.62}\protected@file@percent }
\@writefile{toc}{\defcounter {refsection}{0}\relax }\@writefile{toc}{\contentsline {section}{\numberline {5.1}Validace vstupů}{42}{section.5.1}\protected@file@percent }
\@writefile{lol}{\defcounter {refsection}{0}\relax }\@writefile{lol}{\contentsline {lstlisting}{\numberline {5.1}FormPlugin -- Definování kontrol}{42}{lstlisting.5.1}\protected@file@percent }
\@writefile{lol}{\defcounter {refsection}{0}\relax }\@writefile{lol}{\contentsline {lstlisting}{\numberline {5.2}FormPlugin -- Přiřazení kontrol k formuláři}{43}{lstlisting.5.2}\protected@file@percent }
\@writefile{lol}{\defcounter {refsection}{0}\relax }\@writefile{lol}{\contentsline {lstlisting}{\numberline {5.3}FormPlugin -- Kontrola formuláře}{44}{lstlisting.5.3}\protected@file@percent }
\@writefile{lol}{\defcounter {refsection}{0}\relax }\@writefile{lol}{\contentsline {lstlisting}{\numberline {5.4}FormPlugin -- Save funkce -- kontroly}{45}{lstlisting.5.4}\protected@file@percent }
\@writefile{toc}{\defcounter {refsection}{0}\relax }\@writefile{toc}{\contentsline {section}{\numberline {5.2}Bezpečné ukládání vstupů}{45}{section.5.2}\protected@file@percent }
\@writefile{lol}{\defcounter {refsection}{0}\relax }\@writefile{lol}{\contentsline {lstlisting}{\numberline {5.5}FormPlugin -- Definování filtrů}{45}{lstlisting.5.5}\protected@file@percent }
\@writefile{lol}{\defcounter {refsection}{0}\relax }\@writefile{lol}{\contentsline {lstlisting}{\numberline {5.6}FormPlugin -- Přiřazení filtrů k formuláři}{46}{lstlisting.5.6}\protected@file@percent }
\@writefile{lol}{\defcounter {refsection}{0}\relax }\@writefile{lol}{\contentsline {lstlisting}{\numberline {5.7}FormPlugin -- Save funkce -- filtry}{46}{lstlisting.5.7}\protected@file@percent }
\@writefile{toc}{\defcounter {refsection}{0}\relax }\@writefile{toc}{\contentsline {section}{\numberline {5.3}SQL injection}{47}{section.5.3}\protected@file@percent }
\@writefile{toc}{\defcounter {refsection}{0}\relax }\@writefile{toc}{\contentsline {section}{\numberline {5.4}Nastavení rolí a oprávnění}{47}{section.5.4}\protected@file@percent }
\@writefile{toc}{\defcounter {refsection}{0}\relax }\@writefile{toc}{\contentsline {paragraph}{}{47}{section*.63}\protected@file@percent }
\@writefile{lol}{\defcounter {refsection}{0}\relax }\@writefile{lol}{\contentsline {lstlisting}{\numberline {5.8}Odebrání a přidání rolí}{47}{lstlisting.5.8}\protected@file@percent }
\@writefile{toc}{\defcounter {refsection}{0}\relax }\@writefile{toc}{\contentsline {paragraph}{}{48}{section*.64}\protected@file@percent }
\newlabel{opravneni}{{\M@TitleReference {5.9}{}}{48}{Přidání oprávnění adminovi a manažerovi}{lstlisting.5.9}{}}
\@writefile{lol}{\defcounter {refsection}{0}\relax }\@writefile{lol}{\contentsline {lstlisting}{\numberline {5.9}Přidání oprávnění adminovi a manažerovi}{48}{lstlisting.5.9}\protected@file@percent }
\@writefile{toc}{\defcounter {refsection}{0}\relax }\@writefile{toc}{\contentsline {paragraph}{}{49}{section*.65}\protected@file@percent }
\@writefile{lol}{\defcounter {refsection}{0}\relax }\@writefile{lol}{\contentsline {lstlisting}{\numberline {5.10}Přidání oprávnění k taxonomy}{49}{lstlisting.5.10}\protected@file@percent }
\@writefile{lol}{\defcounter {refsection}{0}\relax }\@writefile{lol}{\contentsline {lstlisting}{\numberline {5.11}Registrace taxonomie}{49}{lstlisting.5.11}\protected@file@percent }
\@writefile{toc}{\defcounter {refsection}{0}\relax }\@writefile{toc}{\contentsline {paragraph}{}{50}{section*.66}\protected@file@percent }
\@writefile{lol}{\defcounter {refsection}{0}\relax }\@writefile{lol}{\contentsline {lstlisting}{\numberline {5.12}Přidání dalších oprávnění}{50}{lstlisting.5.12}\protected@file@percent }
\@writefile{lof}{\defcounter {refsection}{0}\relax }\@writefile{lof}{\addvspace {10pt}}
\@writefile{lot}{\defcounter {refsection}{0}\relax }\@writefile{lot}{\addvspace {10pt}}
\@writefile{toc}{\defcounter {refsection}{0}\relax }\@writefile{toc}{\contentsline {chapter}{Z{\' a}v{\v e}r}{51}{chapter*.67}\protected@file@percent }
\@writefile{toc}{\defcounter {refsection}{0}\relax }\@writefile{toc}{\contentsline {paragraph}{}{51}{section*.68}\protected@file@percent }
\@writefile{toc}{\defcounter {refsection}{0}\relax }\@writefile{toc}{\contentsline {paragraph}{}{51}{section*.69}\protected@file@percent }
\@writefile{lof}{\defcounter {refsection}{0}\relax }\@writefile{lof}{\addvspace {10pt}}
\@writefile{lot}{\defcounter {refsection}{0}\relax }\@writefile{lot}{\addvspace {10pt}}
\@writefile{toc}{\defcounter {refsection}{0}\relax }\@writefile{toc}{\contentsline {chapter}{\chapternumberline {6}Seznam použitých zkratek}{53}{chapter.6}\protected@file@percent }
\@writefile{lof}{\defcounter {refsection}{0}\relax }\@writefile{lof}{\addvspace {10pt}}
\@writefile{lot}{\defcounter {refsection}{0}\relax }\@writefile{lot}{\addvspace {10pt}}
\@writefile{toc}{\defcounter {refsection}{0}\relax }\@writefile{toc}{\contentsline {chapter}{\chapternumberline {7}Obsah přiloženého CD}{55}{chapter.7}\protected@file@percent }
\@writefile{toc}{\defcounter {refsection}{0}\relax }\@writefile{toc}{\contentsline {paragraph}{}{55}{section*.70}\protected@file@percent }
\@writefile{toc}{\defcounter {refsection}{0}\relax }\@writefile{toc}{\contentsline {chapter}{Bibliografie}{57}{section*.72}\protected@file@percent }
\abx@aux@refcontextdefaultsdone
\abx@aux@defaultrefcontext{0}{pro-git}{none/global//global/global}
\abx@aux@defaultrefcontext{0}{wedos-subdomena}{none/global//global/global}
\abx@aux@defaultrefcontext{0}{wordpress-changeurl}{none/global//global/global}
\abx@aux@defaultrefcontext{0}{cert-verify}{none/global//global/global}
\abx@aux@defaultrefcontext{0}{compare-certificate}{none/global//global/global}
\abx@aux@defaultrefcontext{0}{lets-encrypt}{none/global//global/global}
\abx@aux@defaultrefcontext{0}{owasp-xss-types}{none/global//global/global}
\abx@aux@defaultrefcontext{0}{owasp-hijacking}{none/global//global/global}
\abx@aux@defaultrefcontext{0}{w3-set-cookie}{none/global//global/global}
\abx@aux@defaultrefcontext{0}{set-cookie-chrome}{none/global//global/global}
\abx@aux@defaultrefcontext{0}{wordfence-prefix}{none/global//global/global}
\abx@aux@defaultrefcontext{0}{wedos-seznam-souboru}{none/global//global/global}
\abx@aux@defaultrefcontext{0}{stackoverflow-file-permision}{none/global//global/global}
\abx@aux@defaultrefcontext{0}{wordfence}{none/global//global/global}
\abx@aux@defaultrefcontext{0}{UpdraftPlus}{none/global//global/global}
\abx@aux@defaultrefcontext{0}{Jetpack}{none/global//global/global}
\abx@aux@defaultrefcontext{0}{BackupBuddy}{none/global//global/global}
\memsetcounter{lastsheet}{72}
\memsetcounter{lastpage}{58}
